[14:37:06] INFO: Umbra 3 Optimizer version 3.3.6  (build: 0)
[14:37:06] INFO: T: 20 O: 5 H: 0.25 B: 100
[14:37:06] INFO: Tile grid 16x8x8 (at -8,-4,-4) created for scene: 16 tiles (0 empties not included) in 0.003 seconds
[14:37:06] INFO: Using 4 threads to compute 16 tiles, cache 4096 MB
[14:37:06] INFO: Tile processing complete, computed 16 tiles
[14:37:06] INFO: Strict view volumes: no
[14:37:06] INFO: Filtered 0/7 inside clusters
[14:37:06] INFO: Filtered 0/7 global clusters
[14:37:06] INFO: 34/34 cells reachable after global analysis
[14:37:06] INFO: collapsed leaf tiles 16 => 1
[14:37:06] INFO: Generating LOD tiles using 4 threads
[14:37:06] INFO: Connecting LOD tiles
[14:37:06] INFO: Compressing lists
[14:37:06] INFO: Average index range size: 1.38
[14:37:06] INFO: object list: 4 B, cluster list: 0 B
[14:37:06] INFO: created tome with 1 tiles, 4 targets and 0 gates
[14:37:06] INFO: Checking cache...
[14:37:06] INFO: Cache check finished
[14:37:06] DEBUG: Total allocations 9447, peak 395 (size 1 MB 16 kB 388 B)
